{
  "type1": {
    "probability": 0,
    "nbfiles": 2,
    "filesize": 1000000,
    "metadata": {
      "project": "step14",
      "datatype": "AOD",
      "prod_step": "recon"
    }
  },
  "type2": {
    "probability": 0,
    "nbfiles": 4,
    "filesize": 1000000,
    "metadata": {
      "project": "step14",
      "datatype": "RAW",
      "prod_step": "recon"
    }
  },
  "stress1": {
    "probability": 100,
    "nbfiles": 2,
    "filesize": 1048576,
    "metadata": {
      "project": "step14",
      "datatype": "ESD",
      "prod_step": "recon"
    }
  }
}